{
  "type": "FeatureCollection",
  "features": [
    {
      "type": "Feature",
      "properties": {},
      "geometry": {
        "type": "LineString",
        "coordinates": [
          [
            110.03013610839844,
            -7.899430256332762
          ],
          [
            110.03494262695312,
            -7.884467129549804
          ],
          [
            110.04524230957031,
            -7.881066343406992
          ],
          [
            110.04592895507812,
            -7.868143101335924
          ],
          [
            110.04524230957031,
            -7.858620454636446
          ],
          [
            110.05210876464844,
            -7.849777801375157
          ],
          [
            110.0555419921875,
            -7.838894277548979
          ],
          [
            110.05828857421875,
            -7.8327721702902595
          ],
          [
            110.06103515625,
            -7.821888201898094
          ],
          [
            110.07133483886719,
            -7.815085577395266
          ],
          [
            110.08026123046874,
            -7.8048814328181235
          ],
          [
            110.08644104003906,
            -7.791955825456551
          ],
          [
            110.09193420410156,
            -7.784472396665788
          ],
          [
            110.10292053222655,
            -7.77834949189788
          ],
          [
            110.10910034179688,
            -7.7749478395123255
          ],
          [
            110.11459350585938,
            -7.771546159551934
          ],
          [
            110.11459350585938,
            -7.760660598512876
          ],
          [
            110.1214599609375,
            -7.755217712271704
          ],
          [
            110.12557983398438,
            -7.748414005452211
          ],
          [
            110.13381958007812,
            -7.736847451615257
          ],
          [
            110.13107299804688,
            -7.728002225777631
          ],
          [
            110.13175964355469,
            -7.720517659169257
          ],
          [
            110.13313293457031,
            -7.7082699006796815
          ],
          [
            110.13175964355469,
            -7.700784984890029
          ],
          [
            110.13862609863281,
            -7.692619471418295
          ],
          [
            110.12832641601562,
            -7.679009933068023
          ],
          [
            110.11528015136719,
            -7.6749269865310605
          ],
          [
            110.12283325195312,
            -7.662677911745827
          ],
          [
            110.1324462890625,
            -7.651109017589451
          ],
          [
            110.14137268066406,
            -7.644984181844813
          ],
          [
            110.1496124267578,
            -7.644984181844813
          ],
          [
            110.16334533691406,
            -7.643623095297467
          ],
          [
            110.1708984375,
            -7.643623095297467
          ],
          [
            110.18600463867188,
            -7.643623095297467
          ],
          [
            110.19561767578125,
            -7.643623095297467
          ],
          [
            110.20179748535156,
            -7.645664723491027
          ],
          [
            110.21278381347655,
            -7.645664723491027
          ],
          [
            110.22171020507812,
            -7.645664723491027
          ],
          [
            110.22994995117188,
            -7.648386879224012
          ],
          [
            110.24093627929688,
            -7.651109017589451
          ],
          [
            110.24642944335938,
            -7.65042848462662
          ],
          [
            110.25672912597656,
            -7.643623095297467
          ],
          [
            110.26290893554688,
            -7.643623095297467
          ],
          [
            110.26771545410155,
            -7.65042848462662
          ],
          [
            110.26359558105469,
            -7.656553242193606
          ],
          [
            110.26634216308594,
            -7.6613168816772825
          ],
          [
            110.26634216308594,
            -7.670163499349835
          ],
          [
            110.26634216308594,
            -7.676968464701979
          ],
          [
            110.26222229003906,
            -7.682412358549261
          ],
          [
            110.26222229003906,
            -7.6858147567759065
          ],
          [
            110.26840209960938,
            -7.696021787810491
          ],
          [
            110.27320861816406,
            -7.704187235738332
          ],
          [
            110.28007507324219,
            -7.691939004864697
          ],
          [
            110.28762817382812,
            -7.684453800756553
          ],
          [
            110.28900146484375,
            -7.677648955246883
          ],
          [
            110.29106140136717,
            -7.671524501131175
          ],
          [
            110.29930114746094,
            -7.662677911745827
          ],
          [
            110.30685424804686,
            -7.654511666113981
          ],
          [
            110.32127380371092,
            -7.648386879224012
          ],
          [
            110.33500671386719,
            -7.638859258215202
          ],
          [
            110.34599304199219,
            -7.627289718484162
          ],
          [
            110.35697937011719,
            -7.619803378975603
          ],
          [
            110.36521911621094,
            -7.613678094763353
          ],
          [
            110.37551879882812,
            -7.606191517415842
          ],
          [
            110.38307189941406,
            -7.602107874702888
          ],
          [
            110.3913116455078,
            -7.5959823378033935
          ],
          [
            110.39817810058594,
            -7.5850922788286885
          ],
          [
            110.40435791015625,
            -7.577605203370297
          ],
          [
            110.40985107421875,
            -7.572159975824913
          ],
          [
            110.41740417480469,
            -7.568076010017119
          ],
          [
            110.42358398437499,
            -7.560588638933358
          ],
          [
            110.43045043945311,
            -7.554462511443725
          ],
          [
            110.43869018554686,
            -7.5483362970853705
          ],
          [
            110.44692993164061,
            -7.540167876264023
          ],
          [
            110.45173645019531,
            -7.544252105953368
          ],
          [
            110.45516967773438,
            -7.54969768555753
          ],
          [
            110.46066284179688,
            -7.564672675632065
          ],
          [
            110.46546936035156,
            -7.572159975824913
          ],
          [
            110.46546936035156,
            -7.578285851973998
          ],
          [
            110.467529296875,
            -7.586453551282242
          ],
          [
            110.47027587890624,
            -7.597343575775382
          ],
          [
            110.47233581542969,
            -7.614358686221952
          ],
          [
            110.47508239746094,
            -7.630692556784592
          ],
          [
            110.478515625,
            -7.646345264052151
          ],
          [
            110.48057556152344,
            -7.667441482726056
          ],
          [
            110.48469543457031,
            -7.684453800756553
          ],
          [
            110.48538208007811,
            -7.695341326715805
          ],
          [
            110.48675537109375,
            -7.706909016739955
          ],
          [
            110.489501953125,
            -7.720517659169257
          ],
          [
            110.49224853515625,
            -7.729363041819284
          ],
          [
            110.49430847167969,
            -7.747733628722438
          ],
          [
            110.49636840820312,
            -7.763382015212087
          ],
          [
            110.49774169921875,
            -7.767464107217247
          ],
          [
            110.51078796386719,
            -7.770185479849451
          ],
          [
            110.51353454589844,
            -7.781070793944569
          ],
          [
            110.52658081054688,
            -7.787193658965735
          ],
          [
            110.53413391113281,
            -7.793316434507222
          ],
          [
            110.54374694824219,
            -7.796037639341402
          ],
          [
            110.54649353027344,
            -7.789914903590689
          ],
          [
            110.5561065673828,
            -7.795357339791491
          ],
          [
            110.5561065673828,
            -7.787873971779246
          ],
          [
            110.56777954101562,
            -7.783792078329791
          ],
          [
            110.57395935058594,
            -7.78855428348796
          ],
          [
            110.5828857421875,
            -7.791955825456551
          ],
          [
            110.58013916015625,
            -7.7967179377854094
          ],
          [
            110.57670593261719,
            -7.8048814328181235
          ],
          [
            110.58906555175781,
            -7.804201147652385
          ],
          [
            110.58837890625,
            -7.806922281672126
          ],
          [
            110.60073852539062,
            -7.806922281672126
          ],
          [
            110.6048583984375,
            -7.800799705220015
          ],
          [
            110.6158447265625,
            -7.7994391205004225
          ],
          [
            110.62202453613281,
            -7.7994391205004225
          ],
          [
            110.62614440917967,
            -7.800799705220015
          ],
          [
            110.63507080078125,
            -7.7967179377854094
          ],
          [
            110.64056396484375,
            -7.7994391205004225
          ],
          [
            110.654296875,
            -7.796037639341402
          ],
          [
            110.66253662109375,
            -7.80556171687671
          ],
          [
            110.66871643066406,
            -7.7973982351233975
          ],
          [
            110.67764282226562,
            -7.791275519273148
          ],
          [
            110.67764282226562,
            -7.795357339791491
          ],
          [
            110.68450927734375,
            -7.807602562408763
          ],
          [
            110.69412231445312,
            -7.806922281672126
          ],
          [
            110.70716857910156,
            -7.8062419998280825
          ],
          [
            110.71609497070312,
            -7.802840573999901
          ],
          [
            110.71815490722656,
            -7.7973982351233975
          ],
          [
            110.71746826171875,
            -7.78855428348796
          ],
          [
            110.72776794433592,
            -7.79263613053461
          ],
          [
            110.73532104492186,
            -7.7994391205004225
          ],
          [
            110.74356079101562,
            -7.804201147652385
          ],
          [
            110.74905395507812,
            -7.807602562408763
          ],
          [
            110.75523376464844,
            -7.8110039494773575
          ],
          [
            110.75798034667967,
            -7.816446111167208
          ],
          [
            110.76347351074219,
            -7.821207944438944
          ],
          [
            110.77033996582031,
            -7.822568458247752
          ],
          [
            110.77033996582031,
            -7.816446111167208
          ],
          [
            110.76896667480469,
            -7.811684223567514
          ],
          [
            110.775146484375,
            -7.808282842037881
          ],
          [
            110.78201293945311,
            -7.8096433979732005
          ],
          [
            110.78819274902344,
            -7.813044768423498
          ],
          [
            110.78887939453125,
            -7.82324871348783
          ],
          [
            110.78819274902344,
            -7.842295409338315
          ],
          [
            110.78887939453125,
            -7.849777801375157
          ],
          [
            110.79437255859375,
            -7.853859049350008
          ],
          [
            110.79231262207031,
            -7.863381805309173
          ],
          [
            110.79025268554686,
            -7.872904342684437
          ],
          [
            110.78269958496094,
            -7.884467129549804
          ],
          [
            110.78269958496094,
            -7.895349457301588
          ],
          [
            110.7806396484375,
            -7.90147064072684
          ],
          [
            110.775146484375,
            -7.906911616469297
          ],
          [
            110.77583312988281,
            -7.921873929606955
          ],
          [
            110.77583312988281,
            -7.93479548982493
          ],
          [
            110.77033996582031,
            -7.955197126130358
          ],
          [
            110.77033996582031,
            -7.967437620818263
          ],
          [
            110.76828002929688,
            -7.978997751976282
          ],
          [
            110.76622009277342,
            -7.990557556218011
          ],
          [
            110.76072692871094,
            -7.994637408987795
          ],
          [
            110.76004028320312,
            -7.99939718565
          ],
          [
            110.76004028320312,
            -8.005516816847855
          ],
          [
            110.75935363769531,
            -8.012316299253042
          ],
          [
            110.75592041015625,
            -8.019795598710425
          ],
          [
            110.76072692871094,
            -8.031354245443271
          ],
          [
            110.76690673828125,
            -8.040872883969854
          ],
          [
            110.76828002929688,
            -8.055830293075653
          ],
          [
            110.77857971191406,
            -8.068747610789181
          ],
          [
            110.7813262939453,
            -8.076905704047249
          ],
          [
            110.78201293945311,
            -8.090502159756328
          ],
          [
            110.78681945800781,
            -8.095260810940445
          ],
          [
            110.78681945800781,
            -8.110216205684658
          ],
          [
            110.7861328125,
            -8.121772266134808
          ],
          [
            110.78544616699219,
            -8.134687469479552
          ],
          [
            110.78475952148438,
            -8.144203668868975
          ],
          [
            110.78201293945311,
            -8.155079048340928
          ],
          [
            110.78544616699219,
            -8.161876010321398
          ],
          [
            110.79643249511719,
            -8.167993177231883
          ],
          [
            110.80329895019531,
            -8.16935253492885
          ],
          [
            110.81016540527344,
            -8.15915723940109
          ],
          [
            110.80673217773438,
            -8.155079048340928
          ],
          [
            110.81703186035156,
            -8.146242825034385
          ],
          [
            110.819091796875,
            -8.148961683761335
          ],
          [
            110.82183837890625,
            -8.155079048340928
          ],
          [
            110.82252502441406,
            -8.161196319325729
          ],
          [
            110.82939147949219,
            -8.16867285665905
          ],
          [
            110.83419799804688,
            -8.17682891948382
          ],
          [
            110.84037780761719,
            -8.182945857134046
          ],
          [
            110.84724426269531,
            -8.194499816428033
          ],
          [
            110.84449768066405,
            -8.199257231587115
          ],
          [
            110.83831787109375,
            -8.204014589828795
          ],
          [
            110.80604553222656,
            -8.197218346343695
          ],
          [
            110.79849243164062,
            -8.191781267937603
          ],
          [
            110.78544616699219,
            -8.191781267937603
          ],
          [
            110.77377319335936,
            -8.202655350426658
          ],
          [
            110.75866699218749,
            -8.1985776043341
          ],
          [
            110.73738098144531,
            -8.197218346343695
          ],
          [
            110.72433471679688,
            -8.197218346343695
          ],
          [
            110.71678161621094,
            -8.201975728982468
          ],
          [
            110.7044219970703,
            -8.199257231587115
          ],
          [
            110.70785522460938,
            -8.191101627913403
          ],
          [
            110.70716857910156,
            -8.182266202031215
          ],
          [
            110.69480895996094,
            -8.188383056212912
          ],
          [
            110.68244934082031,
            -8.18430516386163
          ],
          [
            110.60005187988281,
            -8.146242825034385
          ],
          [
            110.59661865234375,
            -8.149641395556687
          ],
          [
            110.58700561523436,
            -8.146242825034385
          ],
          [
            110.58219909667969,
            -8.139445597431
          ],
          [
            110.56640625,
            -8.136046940373348
          ],
          [
            110.54374694824219,
            -8.129929285046783
          ],
          [
            110.43663024902344,
            -8.101378994142577
          ],
          [
            110.43045043945311,
            -8.088462720619603
          ],
          [
            110.41328430175781,
            -8.081664515668198
          ],
          [
            110.38993835449219,
            -8.076905704047249
          ],
          [
            110.37483215332031,
            -8.074186357935266
          ],
          [
            110.34049987792969,
            -8.028634593441074
          ],
          [
            110.02979278564453,
            -7.899345240097539
          ]
        ]
      }
    }
  ]
}