{
  "type": "FeatureCollection",
  "features": [
    {
      "type": "Feature",
      "properties": {},
      "geometry": {
        "type": "Polygon",
        "coordinates": [
          [
            [
              110.35616397857665,
              -7.801182368874921
            ],
            [
              110.35560607910156,
              -7.813044768423498
            ],
            [
              110.37620544433592,
              -7.815340677815291
            ],
            [
              110.37903785705566,
              -7.8017351046471966
            ],
            [
              110.35616397857665,
              -7.801182368874921
            ]
          ]
        ]
      }
    }
  ]
}