{
  "type": "FeatureCollection",
  "features": [
    {
      "geometry": {
        "type": "Polygon", 
        "coordinates": [
          [
            [
              110.35938600016385, 
              -7.788833999989038
            ], 
            [
              110.35933300041779, 
              -7.78946600035556
            ], 
            [
              110.35949499979455, 
              -7.78947699996354
            ], 
            [
              110.36024100002214, 
              -7.789542000262998
            ], 
            [
              110.36030400022952, 
              -7.789548001439016
            ], 
            [
              110.36043299988313, 
              -7.789552999870978
            ], 
            [
              110.36151599856464, 
              -7.789584000401248
            ], 
            [
              110.36210099856243, 
              -7.789776000262123
            ], 
            [
              110.36199900015379, 
              -7.790186000283597
            ], 
            [
              110.36170900027025, 
              -7.79154500000169
            ], 
            [
              110.36162499999386, 
              -7.791943000369145
            ], 
            [
              110.36157100020165, 
              -7.792203999814717
            ], 
            [
              110.36145999957944, 
              -7.79275500004303
            ], 
            [
              110.36130000029488, 
              -7.7935180001555295
            ], 
            [
              110.36127299994911, 
              -7.793992999577199
            ], 
            [
              110.36124100027206, 
              -7.794688000150984
            ], 
            [
              110.3612380001336, 
              -7.795435000424902
            ], 
            [
              110.36133199997192, 
              -7.7955500003321845
            ], 
            [
              110.36161799967107, 
              -7.795798000077582
            ], 
            [
              110.36199800010769, 
              -7.796072000122592
            ], 
            [
              110.36140899992552, 
              -7.796109000030299
            ], 
            [
              110.3596659995863, 
              -7.795741000147018
            ], 
            [
              110.35963499995535, 
              -7.795739000054709
            ], 
            [
              110.35896999986568, 
              -7.795628000331874
            ], 
            [
              110.35855000028226, 
              -7.795570000355156
            ], 
            [
              110.35795399977735, 
              -7.795551000378282
            ], 
            [
              110.35729099977988, 
              -7.795518000655136
            ], 
            [
              110.3566220004052, 
              -7.795510000286242
            ], 
            [
              110.35634400017562, 
              -7.795507000147893
            ], 
            [
              110.35535399858821, 
              -7.795616999824631
            ], 
            [
              110.35536600004104, 
              -7.795420000632475
            ], 
            [
              110.3553199997184, 
              -7.79524899994135
            ], 
            [
              110.35518099960348, 
              -7.794987999596458
            ], 
            [
              110.35512999994955, 
              -7.7948090003350785
            ], 
            [
              110.35514199960363, 
              -7.794693000381642
            ], 
            [
              110.35529799960307, 
              -7.794479999552209
            ], 
            [
              110.35537899974122, 
              -7.794368000682653
            ], 
            [
              110.35543999985623, 
              -7.794187000429645
            ], 
            [
              110.35546900029419, 
              -7.794098999968753
            ], 
            [
              110.35532299985664, 
              -7.793818001399586
            ], 
            [
              110.35527200020272, 
              -7.793717000339257
            ], 
            [
              110.3552779995801, 
              -7.793636000201161
            ], 
            [
              110.35553799987889, 
              -7.7934320006862094
            ], 
            [
              110.35563799999375, 
              -7.793348000409708
            ], 
            [
              110.35570200024716, 
              -7.793189000272093
            ], 
            [
              110.3557119998091, 
              -7.792955000273025
            ], 
            [
              110.35571299985514, 
              -7.792934000203843
            ], 
            [
              110.35562100010924, 
              -7.792574000689456
            ], 
            [
              110.35549799983295, 
              -7.792292000275438
            ], 
            [
              110.35543699971794, 
              -7.7921500000224455
            ], 
            [
              110.35542400001776, 
              -7.792015000092135
            ], 
            [
              110.35549299960229, 
              -7.791772000577282
            ], 
            [
              110.35558400020153, 
              -7.791605000070604
            ], 
            [
              110.35580199856349, 
              -7.791382000578835
            ], 
            [
              110.35603500031505, 
              -7.7912360001411685
            ], 
            [
              110.35627299959935, 
              -7.791123000326138
            ], 
            [
              110.35659099987487, 
              -7.790917999865712
            ], 
            [
              110.35676599985118, 
              -7.790777000558023
            ], 
            [
              110.35686099973537, 
              -7.790636000351071
            ], 
            [
              110.35697699968887, 
              -7.790387000559576
            ], 
            [
              110.35701499964262, 
              -7.790209999591752
            ], 
            [
              110.35700199994244, 
              -7.790072000422413
            ], 
            [
              110.35691500042697, 
              -7.789929000123152
            ], 
            [
              110.35679200015085, 
              -7.789804000653987
            ], 
            [
              110.35663199996691, 
              -7.789723001415325
            ], 
            [
              110.35655500001332, 
              -7.789684001415367
            ], 
            [
              110.35631599978376, 
              -7.789596000055212
            ], 
            [
              110.355938998586, 
              -7.7895349999402015
            ], 
            [
              110.35562899957876, 
              -7.789495999940357
            ], 
            [
              110.3552839998568, 
              -7.789408000378842
            ], 
            [
              110.35517700031835, 
              -7.789353001439736
            ], 
            [
              110.35512699981132, 
              -7.789275001440046
            ], 
            [
              110.35511899944242, 
              -7.7890600014179086
            ], 
            [
              110.35517200008786, 
              -7.788863000427
            ], 
            [
              110.35526599992602, 
              -7.788543000059292
            ], 
            [
              110.35526800001838, 
              -7.788511000382243
            ], 
            [
              110.35548900031716, 
              -7.788520999944126
            ], 
            [
              110.35689899968918, 
              -7.788596999851563
            ], 
            [
              110.35738799975644, 
              -7.788629000427989
            ], 
            [
              110.35741800024067, 
              -7.788629000427989
            ], 
            [
              110.35759400026302, 
              -7.7886299995747095
            ], 
            [
              110.35791399973141, 
              -7.788645000266513
            ], 
            [
              110.35840599993713, 
              -7.788690001442376
            ], 
            [
              110.35866300009747, 
              -7.788720000127853
            ], 
            [
              110.35869299968232, 
              -7.78872100017395
            ], 
            [
              110.35872400021248, 
              -7.788725000358397
            ], 
            [
              110.35938600016385, 
              -7.788833999989038
            ]
          ]
        ]
      }, 
      "type": "Feature", 
      "properties": {
        "KAB_KOTA": "KOTA YOGYAKARTA", 
        "Shape_Area": 3.90508856985e-05, 
        "DESA_KEL": "PRINGGOKUSUMAN", 
        "OBJECTID": 41688, 
        "ID_DESA": "3471120001", 
        "KECAMATAN": "GEDONGTENGEN", 
        "KODE_POS": "55272", 
        "KODE_PROV": "34", 
        "KODE_KAB": "34.71", 
        "FID": 0, 
        "Shape_Leng": 0.0306154689731, 
        "PROVINSI": "DAERAH ISTIMEWA YOGYAKARTA", 
        "KODE_KEC": "34.71.05", 
        "KODE_DAGRI": "34.71.05.1002"
      }
    }
    ,
    {
      "geometry": {
        "type": "Polygon", 
        "coordinates": [
          [
            [
              110.3661999996304, 
              -7.78962700058554
            ], 
            [
              110.36618399979182, 
              -7.789818000400317
            ], 
            [
              110.36616299972275, 
              -7.789980000676451
            ], 
            [
              110.36615000002257, 
              -7.790114000560607
            ], 
            [
              110.36612699986114, 
              -7.790252000629266
            ], 
            [
              110.36609600023036, 
              -7.79052999995946
            ], 
            [
              110.36608299963086, 
              -7.790651000143498
            ], 
            [
              110.36602899983865, 
              -7.7911470014329325
            ], 
            [
              110.36600799976941, 
              -7.791249999887498
            ], 
            [
              110.36595199988506, 
              -7.791697999862777
            ], 
            [
              110.3659459996083, 
              -7.7917640002083886
            ], 
            [
              110.3659210002541, 
              -7.791970999861633
            ], 
            [
              110.3658790001158, 
              -7.792309000160117
            ], 
            [
              110.36582799956267, 
              -7.792655999974329
            ], 
            [
              110.36568600020888, 
              -7.793756000339101
            ], 
            [
              110.36568600020888, 
              -7.793763000661897
            ], 
            [
              110.36565299958642, 
              -7.793996000614868
            ], 
            [
              110.36562900027826, 
              -7.794240000175819
            ], 
            [
              110.36556700011715, 
              -7.794819999943002
            ], 
            [
              110.36554199986358, 
              -7.795037000057391
            ], 
            [
              110.36542900004838, 
              -7.795860000238747
            ], 
            [
              110.36536799993337, 
              -7.796348000259911
            ], 
            [
              110.36516899974959, 
              -7.796319999868047
            ], 
            [
              110.36456000044382, 
              -7.796249000191153
            ], 
            [
              110.36401400044588, 
              -7.796183999891639
            ], 
            [
              110.36390399986976, 
              -7.796172000237561
            ], 
            [
              110.36374000040087, 
              -7.796157999591912
            ], 
            [
              110.36356899970974, 
              -7.796130000099367
            ], 
            [
              110.36340799858033, 
              -7.796117000399192
            ], 
            [
              110.36336799943376, 
              -7.796110000076396
            ], 
            [
              110.36332800028697, 
              -7.79610300065292
            ], 
            [
              110.36311300026495, 
              -7.796098999569097
            ], 
            [
              110.36286699971237, 
              -7.796068999984243
            ], 
            [
              110.36278000019689, 
              -7.796064000653075
            ], 
            [
              110.36257499973652, 
              -7.796042001437115
            ], 
            [
              110.36208699971536, 
              -7.796005000630146
            ], 
            [
              110.36199800010769, 
              -7.796072000122592
            ], 
            [
              110.36161799967107, 
              -7.795798000077582
            ], 
            [
              110.36133199997192, 
              -7.7955500003321845
            ], 
            [
              110.3612380001336, 
              -7.795435000424902
            ], 
            [
              110.36124100027206, 
              -7.794688000150984
            ], 
            [
              110.36127299994911, 
              -7.793992999577199
            ], 
            [
              110.36130000029488, 
              -7.7935180001555295
            ], 
            [
              110.36145999957944, 
              -7.79275500004303
            ], 
            [
              110.36157100020165, 
              -7.792203999814717
            ], 
            [
              110.36162499999386, 
              -7.791943000369145
            ], 
            [
              110.36170900027025, 
              -7.79154500000169
            ], 
            [
              110.36199900015379, 
              -7.790186000283597
            ], 
            [
              110.36210099856243, 
              -7.789776000262123
            ], 
            [
              110.36151599856464, 
              -7.789584000401248
            ], 
            [
              110.36043299988313, 
              -7.789552999870978
            ], 
            [
              110.36030400022952, 
              -7.789548001439016
            ], 
            [
              110.36024100002214, 
              -7.789542000262998
            ], 
            [
              110.35949499979455, 
              -7.78947699996354
            ], 
            [
              110.35933300041779, 
              -7.78946600035556
            ], 
            [
              110.35938600016385, 
              -7.788833999989038
            ], 
            [
              110.35959800004764, 
              -7.788869000703755
            ], 
            [
              110.3604469996294, 
              -7.788935000150104
            ], 
            [
              110.36091399958156, 
              -7.788995000219018
            ], 
            [
              110.3616199997632, 
              -7.789056000334085
            ], 
            [
              110.36249299955233, 
              -7.788402999898494
            ], 
            [
              110.3624300002445, 
              -7.788246999899002
            ], 
            [
              110.36242199987544, 
              -7.788168999899369
            ], 
            [
              110.36245100031357, 
              -7.788033999969059
            ], 
            [
              110.362518999852, 
              -7.787763000062341
            ], 
            [
              110.36257099955219, 
              -7.787556999555818
            ], 
            [
              110.3626309996211, 
              -7.7871959999952765
            ], 
            [
              110.3628240004274, 
              -7.787205000410381
            ], 
            [
              110.36322900021821, 
              -7.78726000024875
            ], 
            [
              110.36344100010217, 
              -7.7873039995798194
            ], 
            [
              110.3637629996627, 
              -7.787348000709585
            ], 
            [
              110.36382599987007, 
              -7.787351999994769
            ], 
            [
              110.36457600028223, 
              -7.787433000132751
            ], 
            [
              110.36470800007413, 
              -7.787459999579255
            ], 
            [
              110.36506899963473, 
              -7.787503000662923
            ], 
            [
              110.36558299995556, 
              -7.7875810006626125
            ], 
            [
              110.36583499988546, 
              -7.787604999970654
            ], 
            [
              110.36643799981385, 
              -7.787695001423117
            ], 
            [
              110.36633499956076, 
              -7.788448000174981
            ], 
            [
              110.36629799965306, 
              -7.788773999920124
            ], 
            [
              110.36628299986074, 
              -7.788891999965699
            ], 
            [
              110.36621499942277, 
              -7.789442000148142
            ], 
            [
              110.36621400027605, 
              -7.7894489995716185
            ], 
            [
              110.3661999996304, 
              -7.78962700058554
            ]
          ]
        ]
      }, 
      "type": "Feature", 
      "properties": {
        "KAB_KOTA": "KOTA YOGYAKARTA", 
        "Shape_Area": 3.82169214845e-05, 
        "DESA_KEL": "SOSROMENDURAN", 
        "OBJECTID": 41756, 
        "ID_DESA": "3471120002", 
        "KECAMATAN": "GEDONGTENGEN", 
        "KODE_POS": "55271", 
        "KODE_PROV": "34", 
        "KODE_KAB": "34.71", 
        "FID": 1, 
        "Shape_Leng": 0.0307311846457, 
        "PROVINSI": "DAERAH ISTIMEWA YOGYAKARTA", 
        "KODE_KEC": "34.71.05", 
        "KODE_DAGRI": "34.71.05.1001"
      }
    }
  ]
}
